L3Tau0DY1Jgt1bZVZHMET0to10MTW50to100 3 0 1 12 1 0  0 1
L3Tau0DY1Jgt1bZVZHMET10to20MTW50to100 3 0 1 12 1 1  0 2
L3Tau0DY1Jgt1bZVZHMET20to30MTW50to100 3 0 1 12 1 2  0 3
L3Tau0DY1Jgt1bZVZHMET30to40MTW50to100 3 0 1 12 1 3  0 4
L3Tau0DY1Jgt1bZVZHMET40to50MTW50to100 3 0 1 12 1 4  0 5
L3Tau0DY1Jgt1bZVZHMET50to60MTW50to100 3 0 1 12 1 5  0 6
L3Tau0DY1Jgt1bZVZHMET60to70MTW50to100 3 0 1 12 1 6  0 7
L3Tau0DY1Jgt1bZVZHMET70to80MTW50to100 3 0 1 12 1 7  0 8
L3Tau0DY1Jgt1bZVZHMET80to90MTW50to100 3 0 1 12 1 8  0 9
L3Tau0DY1Jgt1bZVZHMET90to100MTW50to100 3 0 1 12 1 9  0 10
L3Tau0DY1Jgt1bZVZHMET100to110MTW50to100 3 0 1 12 1 10  0 11
L3Tau0DY1Jgt1bZVZHMET110to120MTW50to100 3 0 1 12 1 11  0 12
L3Tau0DY1Jgt1bZVZHMET120to130MTW50to100 3 0 1 12 1 12  0 13
L3Tau0DY1Jgt1bZVZHMET130to140MTW50to100 3 0 1 12 1 13  0 14
L3Tau0DY1Jgt1bZVZHMET140to150MTW50to100 3 0 1 12 1 14  0 15
L3Tau0DY1Jgt1bZVZHMET150to160MTW50to100 3 0 1 12 1 15  0 16
L3Tau0DY1Jgt1bZVZHMET160to170MTW50to100 3 0 1 12 1 16  0 17
L3Tau0DY1Jgt1bZVZHMET170to180MTW50to100 3 0 1 12 1 17  0 18
L3Tau0DY1Jgt1bZVZHMET180to190MTW50to100 3 0 1 12 1 18  0 19
L3Tau0DY1Jgt1bZVZHMET190to200MTW50to100 3 0 1 12 1 19  0 20
L3Tau0DY1Jgt1bZVZHMET200to210MTW50to100 3 0 1 12 1 20  0 21
L3Tau0DY1Jgt1bZVZHMET210to220MTW50to100 3 0 1 12 1 21  0 22
L3Tau0DY1Jgt1bZVZHMET220to230MTW50to100 3 0 1 12 1 22  0 23
L3Tau0DY1Jgt1bZVZHMET230to240MTW50to100 3 0 1 12 1 23  0 24
L3Tau0DY1Jgt1bZVZHMET240to250MTW50to100 3 0 1 12 1 24  0 25
L3Tau0DY1Jgt1bZVZHMET250to260MTW50to100 3 0 1 12 1 25  0 26
L3Tau0DY1Jgt1bZVZHMET260to270MTW50to100 3 0 1 12 1 26  0 27
L3Tau0DY1Jgt1bZVZHMET270to280MTW50to100 3 0 1 12 1 27  0 28
L3Tau0DY1Jgt1bZVZHMET280to290MTW50to100 3 0 1 12 1 28  0 29
L3Tau0DY1Jgt1bZVZHMET290to300MTW50to100 3 0 1 12 1 29  0 30
L3Tau0DY1Jgt1bZVZLMET0to10MTW50to100 3 0 1 11 1 0  0 31
L3Tau0DY1Jgt1bZVZLMET10to20MTW50to100 3 0 1 11 1 1  0 32
L3Tau0DY1Jgt1bZVZLMET20to30MTW50to100 3 0 1 11 1 2  0 33
L3Tau0DY1Jgt1bZVZLMET30to40MTW50to100 3 0 1 11 1 3  0 34
L3Tau0DY1Jgt1bZVZLMET40to50MTW50to100 3 0 1 11 1 4  0 35
L3Tau0DY1Jgt1bZVZLMET50to60MTW50to100 3 0 1 11 1 5  0 36
L3Tau0DY1Jgt1bZVZLMET60to70MTW50to100 3 0 1 11 1 6  0 37
L3Tau0DY1Jgt1bZVZLMET70to80MTW50to100 3 0 1 11 1 7  0 38
L3Tau0DY1Jgt1bZVZLMET80to90MTW50to100 3 0 1 11 1 8  0 39
L3Tau0DY1Jgt1bZVZLMET90to100MTW50to100 3 0 1 11 1 9  0 40
L3Tau0DY1Jgt1bZVZLMET100to110MTW50to100 3 0 1 11 1 10  0 41
L3Tau0DY1Jgt1bZVZLMET110to120MTW50to100 3 0 1 11 1 11  0 42
L3Tau0DY1Jgt1bZVZLMET120to130MTW50to100 3 0 1 11 1 12  0 43
L3Tau0DY1Jgt1bZVZLMET130to140MTW50to100 3 0 1 11 1 13  0 44
L3Tau0DY1Jgt1bZVZLMET140to150MTW50to100 3 0 1 11 1 14  0 45
L3Tau0DY1Jgt1bZVZLMET150to160MTW50to100 3 0 1 11 1 15  0 46
L3Tau0DY1Jgt1bZVZLMET160to170MTW50to100 3 0 1 11 1 16  0 47
L3Tau0DY1Jgt1bZVZLMET170to180MTW50to100 3 0 1 11 1 17  0 48
L3Tau0DY1Jgt1bZVZLMET180to190MTW50to100 3 0 1 11 1 18  0 49
L3Tau0DY1Jgt1bZVZLMET190to200MTW50to100 3 0 1 11 1 19  0 50
L3Tau0DY1Jgt1bZVZLMET200to210MTW50to100 3 0 1 11 1 20  0 51
L3Tau0DY1Jgt1bZVZLMET210to220MTW50to100 3 0 1 11 1 21  0 52
L3Tau0DY1Jgt1bZVZLMET220to230MTW50to100 3 0 1 11 1 22  0 53
L3Tau0DY1Jgt1bZVZLMET230to240MTW50to100 3 0 1 11 1 23  0 54
L3Tau0DY1Jgt1bZVZLMET240to250MTW50to100 3 0 1 11 1 24  0 55
L3Tau0DY1Jgt1bZVZLMET250to260MTW50to100 3 0 1 11 1 25  0 56
L3Tau0DY1Jgt1bZVZLMET260to270MTW50to100 3 0 1 11 1 26  0 57
L3Tau0DY1Jgt1bZVZLMET270to280MTW50to100 3 0 1 11 1 27  0 58
L3Tau0DY1Jgt1bZVZLMET280to290MTW50to100 3 0 1 11 1 28  0 59
L3Tau0DY1Jgt1bZVZLMET290to300MTW50to100 3 0 1 11 1 29  0 60
L3Tau0DY1Jgt1bMET0to10MTW50to100 3 0 1 10 1 0  0 61
L3Tau0DY1Jgt1bMET10to20MTW50to100 3 0 1 10 1 1  0 62
L3Tau0DY1Jgt1bMET20to30MTW50to100 3 0 1 10 1 2  0 63
L3Tau0DY1Jgt1bMET30to40MTW50to100 3 0 1 10 1 3  0 64
L3Tau0DY1Jgt1bMET40to50MTW50to100 3 0 1 10 1 4  0 65
L3Tau0DY1Jgt1bMET50to60MTW50to100 3 0 1 10 1 5  0 66
L3Tau0DY1Jgt1bMET60to70MTW50to100 3 0 1 10 1 6  0 67
L3Tau0DY1Jgt1bMET70to80MTW50to100 3 0 1 10 1 7  0 68
L3Tau0DY1Jgt1bMET80to90MTW50to100 3 0 1 10 1 8  0 69
L3Tau0DY1Jgt1bMET90to100MTW50to100 3 0 1 10 1 9  0 70
L3Tau0DY1Jgt1bMET100to110MTW50to100 3 0 1 10 1 10  0 71
L3Tau0DY1Jgt1bMET110to120MTW50to100 3 0 1 10 1 11  0 72
L3Tau0DY1Jgt1bMET120to130MTW50to100 3 0 1 10 1 12  0 73
L3Tau0DY1Jgt1bMET130to140MTW50to100 3 0 1 10 1 13  0 74
L3Tau0DY1Jgt1bMET140to150MTW50to100 3 0 1 10 1 14  0 75
L3Tau0DY1Jgt1bMET150to160MTW50to100 3 0 1 10 1 15  0 76
L3Tau0DY1Jgt1bMET160to170MTW50to100 3 0 1 10 1 16  0 77
L3Tau0DY1Jgt1bMET170to180MTW50to100 3 0 1 10 1 17  0 78
L3Tau0DY1Jgt1bMET180to190MTW50to100 3 0 1 10 1 18  0 79
L3Tau0DY1Jgt1bMET190to200MTW50to100 3 0 1 10 1 19  0 80
L3Tau0DY1Jgt1bMET200to210MTW50to100 3 0 1 10 1 20  0 81
L3Tau0DY1Jgt1bMET210to220MTW50to100 3 0 1 10 1 21  0 82
L3Tau0DY1Jgt1bMET220to230MTW50to100 3 0 1 10 1 22  0 83
L3Tau0DY1Jgt1bMET230to240MTW50to100 3 0 1 10 1 23  0 84
L3Tau0DY1Jgt1bMET240to250MTW50to100 3 0 1 10 1 24  0 85
L3Tau0DY1Jgt1bMET250to260MTW50to100 3 0 1 10 1 25  0 86
L3Tau0DY1Jgt1bMET260to270MTW50to100 3 0 1 10 1 26  0 87
L3Tau0DY1Jgt1bMET270to280MTW50to100 3 0 1 10 1 27  0 88
L3Tau0DY1Jgt1bMET280to290MTW50to100 3 0 1 10 1 28  0 89
L3Tau0DY1Jgt1bMET290to300MTW50to100 3 0 1 10 1 29  0 90
L3Tau0DY1ZVZHMET0to10MTW50to100 3 0 0 12 1 0  0 91
L3Tau0DY1ZVZHMET10to20MTW50to100 3 0 0 12 1 1  0 92
L3Tau0DY1ZVZHMET20to30MTW50to100 3 0 0 12 1 2  0 93
L3Tau0DY1ZVZHMET30to40MTW50to100 3 0 0 12 1 3  0 94
L3Tau0DY1ZVZHMET40to50MTW50to100 3 0 0 12 1 4  0 95
L3Tau0DY1ZVZHMET50to60MTW50to100 3 0 0 12 1 5  0 96
L3Tau0DY1ZVZHMET60to70MTW50to100 3 0 0 12 1 6  0 97
L3Tau0DY1ZVZHMET70to80MTW50to100 3 0 0 12 1 7  0 98
L3Tau0DY1ZVZHMET80to90MTW50to100 3 0 0 12 1 8  0 99
L3Tau0DY1ZVZHMET90to100MTW50to100 3 0 0 12 1 9  0 100
L3Tau0DY1ZVZHMET100to110MTW50to100 3 0 0 12 1 10  0 101
L3Tau0DY1ZVZHMET110to120MTW50to100 3 0 0 12 1 11  0 102
L3Tau0DY1ZVZHMET120to130MTW50to100 3 0 0 12 1 12  0 103
L3Tau0DY1ZVZHMET130to140MTW50to100 3 0 0 12 1 13  0 104
L3Tau0DY1ZVZHMET140to150MTW50to100 3 0 0 12 1 14  0 105
L3Tau0DY1ZVZHMET150to160MTW50to100 3 0 0 12 1 15  0 106
L3Tau0DY1ZVZHMET160to170MTW50to100 3 0 0 12 1 16  0 107
L3Tau0DY1ZVZHMET170to180MTW50to100 3 0 0 12 1 17  0 108
L3Tau0DY1ZVZHMET180to190MTW50to100 3 0 0 12 1 18  0 109
L3Tau0DY1ZVZHMET190to200MTW50to100 3 0 0 12 1 19  0 110
L3Tau0DY1ZVZHMET200to210MTW50to100 3 0 0 12 1 20  0 111
L3Tau0DY1ZVZHMET210to220MTW50to100 3 0 0 12 1 21  0 112
L3Tau0DY1ZVZHMET220to230MTW50to100 3 0 0 12 1 22  0 113
L3Tau0DY1ZVZHMET230to240MTW50to100 3 0 0 12 1 23  0 114
L3Tau0DY1ZVZHMET240to250MTW50to100 3 0 0 12 1 24  0 115
L3Tau0DY1ZVZHMET250to260MTW50to100 3 0 0 12 1 25  0 116
L3Tau0DY1ZVZHMET260to270MTW50to100 3 0 0 12 1 26  0 117
L3Tau0DY1ZVZHMET270to280MTW50to100 3 0 0 12 1 27  0 118
L3Tau0DY1ZVZHMET280to290MTW50to100 3 0 0 12 1 28  0 119
L3Tau0DY1ZVZHMET290to300MTW50to100 3 0 0 12 1 29  0 120
L3Tau0DY1ZVZLMET0to10MTW50to100 3 0 0 11 1 0  0 121
L3Tau0DY1ZVZLMET10to20MTW50to100 3 0 0 11 1 1  0 122
L3Tau0DY1ZVZLMET20to30MTW50to100 3 0 0 11 1 2  0 123
L3Tau0DY1ZVZLMET30to40MTW50to100 3 0 0 11 1 3  0 124
L3Tau0DY1ZVZLMET40to50MTW50to100 3 0 0 11 1 4  0 125
L3Tau0DY1ZVZLMET50to60MTW50to100 3 0 0 11 1 5  0 126
L3Tau0DY1ZVZLMET60to70MTW50to100 3 0 0 11 1 6  0 127
L3Tau0DY1ZVZLMET70to80MTW50to100 3 0 0 11 1 7  0 128
L3Tau0DY1ZVZLMET80to90MTW50to100 3 0 0 11 1 8  0 129
L3Tau0DY1ZVZLMET90to100MTW50to100 3 0 0 11 1 9  0 130
L3Tau0DY1ZVZLMET100to110MTW50to100 3 0 0 11 1 10  0 131
L3Tau0DY1ZVZLMET110to120MTW50to100 3 0 0 11 1 11  0 132
L3Tau0DY1ZVZLMET120to130MTW50to100 3 0 0 11 1 12  0 133
L3Tau0DY1ZVZLMET130to140MTW50to100 3 0 0 11 1 13  0 134
L3Tau0DY1ZVZLMET140to150MTW50to100 3 0 0 11 1 14  0 135
L3Tau0DY1ZVZLMET150to160MTW50to100 3 0 0 11 1 15  0 136
L3Tau0DY1ZVZLMET160to170MTW50to100 3 0 0 11 1 16  0 137
L3Tau0DY1ZVZLMET170to180MTW50to100 3 0 0 11 1 17  0 138
L3Tau0DY1ZVZLMET180to190MTW50to100 3 0 0 11 1 18  0 139
L3Tau0DY1ZVZLMET190to200MTW50to100 3 0 0 11 1 19  0 140
L3Tau0DY1ZVZLMET200to210MTW50to100 3 0 0 11 1 20  0 141
L3Tau0DY1ZVZLMET210to220MTW50to100 3 0 0 11 1 21  0 142
L3Tau0DY1ZVZLMET220to230MTW50to100 3 0 0 11 1 22  0 143
L3Tau0DY1ZVZLMET230to240MTW50to100 3 0 0 11 1 23  0 144
L3Tau0DY1ZVZLMET240to250MTW50to100 3 0 0 11 1 24  0 145
L3Tau0DY1ZVZLMET250to260MTW50to100 3 0 0 11 1 25  0 146
L3Tau0DY1ZVZLMET260to270MTW50to100 3 0 0 11 1 26  0 147
L3Tau0DY1ZVZLMET270to280MTW50to100 3 0 0 11 1 27  0 148
L3Tau0DY1ZVZLMET280to290MTW50to100 3 0 0 11 1 28  0 149
L3Tau0DY1ZVZLMET290to300MTW50to100 3 0 0 11 1 29  0 150
L3Tau0DY1MET0to10MTW50to100 3 0 0 10 1 0  0 151
L3Tau0DY1MET10to20MTW50to100 3 0 0 10 1 1  0 152
L3Tau0DY1MET20to30MTW50to100 3 0 0 10 1 2  0 153
L3Tau0DY1MET30to40MTW50to100 3 0 0 10 1 3  0 154
L3Tau0DY1MET40to50MTW50to100 3 0 0 10 1 4  0 155
L3Tau0DY1MET50to60MTW50to100 3 0 0 10 1 5  0 156
L3Tau0DY1MET60to70MTW50to100 3 0 0 10 1 6  0 157
L3Tau0DY1MET70to80MTW50to100 3 0 0 10 1 7  0 158
L3Tau0DY1MET80to90MTW50to100 3 0 0 10 1 8  0 159
L3Tau0DY1MET90to100MTW50to100 3 0 0 10 1 9  0 160
L3Tau0DY1MET100to110MTW50to100 3 0 0 10 1 10  0 161
L3Tau0DY1MET110to120MTW50to100 3 0 0 10 1 11  0 162
L3Tau0DY1MET120to130MTW50to100 3 0 0 10 1 12  0 163
L3Tau0DY1MET130to140MTW50to100 3 0 0 10 1 13  0 164
L3Tau0DY1MET140to150MTW50to100 3 0 0 10 1 14  0 165
L3Tau0DY1MET150to160MTW50to100 3 0 0 10 1 15  0 166
L3Tau0DY1MET160to170MTW50to100 3 0 0 10 1 16  0 167
L3Tau0DY1MET170to180MTW50to100 3 0 0 10 1 17  0 168
L3Tau0DY1MET180to190MTW50to100 3 0 0 10 1 18  0 169
L3Tau0DY1MET190to200MTW50to100 3 0 0 10 1 19  0 170
L3Tau0DY1MET200to210MTW50to100 3 0 0 10 1 20  0 171
L3Tau0DY1MET210to220MTW50to100 3 0 0 10 1 21  0 172
L3Tau0DY1MET220to230MTW50to100 3 0 0 10 1 22  0 173
L3Tau0DY1MET230to240MTW50to100 3 0 0 10 1 23  0 174
L3Tau0DY1MET240to250MTW50to100 3 0 0 10 1 24  0 175
L3Tau0DY1MET250to260MTW50to100 3 0 0 10 1 25  0 176
L3Tau0DY1MET260to270MTW50to100 3 0 0 10 1 26  0 177
L3Tau0DY1MET270to280MTW50to100 3 0 0 10 1 27  0 178
L3Tau0DY1MET280to290MTW50to100 3 0 0 10 1 28  0 179
L3Tau0DY1MET290to300MTW50to100 3 0 0 10 1 29  0 180
L3Tau0DY0Jgt1bMET0to10MTW50to100 3 0 1 0 1 0  0 181
L3Tau0DY0Jgt1bMET10to20MTW50to100 3 0 1 0 1 1  0 182
L3Tau0DY0Jgt1bMET20to30MTW50to100 3 0 1 0 1 2  0 183
L3Tau0DY0Jgt1bMET30to40MTW50to100 3 0 1 0 1 3  0 184
L3Tau0DY0Jgt1bMET40to50MTW50to100 3 0 1 0 1 4  0 185
L3Tau0DY0Jgt1bMET50to60MTW50to100 3 0 1 0 1 5  0 186
L3Tau0DY0Jgt1bMET60to70MTW50to100 3 0 1 0 1 6  0 187
L3Tau0DY0Jgt1bMET70to80MTW50to100 3 0 1 0 1 7  0 188
L3Tau0DY0Jgt1bMET80to90MTW50to100 3 0 1 0 1 8  0 189
L3Tau0DY0Jgt1bMET90to100MTW50to100 3 0 1 0 1 9  0 190
L3Tau0DY0Jgt1bMET100to110MTW50to100 3 0 1 0 1 10  0 191
L3Tau0DY0Jgt1bMET110to120MTW50to100 3 0 1 0 1 11  0 192
L3Tau0DY0Jgt1bMET120to130MTW50to100 3 0 1 0 1 12  0 193
L3Tau0DY0Jgt1bMET130to140MTW50to100 3 0 1 0 1 13  0 194
L3Tau0DY0Jgt1bMET140to150MTW50to100 3 0 1 0 1 14  0 195
L3Tau0DY0Jgt1bMET150to160MTW50to100 3 0 1 0 1 15  0 196
L3Tau0DY0Jgt1bMET160to170MTW50to100 3 0 1 0 1 16  0 197
L3Tau0DY0Jgt1bMET170to180MTW50to100 3 0 1 0 1 17  0 198
L3Tau0DY0Jgt1bMET180to190MTW50to100 3 0 1 0 1 18  0 199
L3Tau0DY0Jgt1bMET190to200MTW50to100 3 0 1 0 1 19  0 200
L3Tau0DY0Jgt1bMET200to210MTW50to100 3 0 1 0 1 20  0 201
L3Tau0DY0Jgt1bMET210to220MTW50to100 3 0 1 0 1 21  0 202
L3Tau0DY0Jgt1bMET220to230MTW50to100 3 0 1 0 1 22  0 203
L3Tau0DY0Jgt1bMET230to240MTW50to100 3 0 1 0 1 23  0 204
L3Tau0DY0Jgt1bMET240to250MTW50to100 3 0 1 0 1 24  0 205
L3Tau0DY0Jgt1bMET250to260MTW50to100 3 0 1 0 1 25  0 206
L3Tau0DY0Jgt1bMET260to270MTW50to100 3 0 1 0 1 26  0 207
L3Tau0DY0Jgt1bMET270to280MTW50to100 3 0 1 0 1 27  0 208
L3Tau0DY0Jgt1bMET280to290MTW50to100 3 0 1 0 1 28  0 209
L3Tau0DY0Jgt1bMET290to300MTW50to100 3 0 1 0 1 29  0 210
L3Tau0DY0MET0to10MTW50to100 3 0 0 0 1 0  0 211
L3Tau0DY0MET10to20MTW50to100 3 0 0 0 1 1  0 212
L3Tau0DY0MET20to30MTW50to100 3 0 0 0 1 2  0 213
L3Tau0DY0MET30to40MTW50to100 3 0 0 0 1 3  0 214
L3Tau0DY0MET40to50MTW50to100 3 0 0 0 1 4  0 215
L3Tau0DY0MET50to60MTW50to100 3 0 0 0 1 5  0 216
L3Tau0DY0MET60to70MTW50to100 3 0 0 0 1 6  0 217
L3Tau0DY0MET70to80MTW50to100 3 0 0 0 1 7  0 218
L3Tau0DY0MET80to90MTW50to100 3 0 0 0 1 8  0 219
L3Tau0DY0MET90to100MTW50to100 3 0 0 0 1 9  0 220
L3Tau0DY0MET100to110MTW50to100 3 0 0 0 1 10  0 221
L3Tau0DY0MET110to120MTW50to100 3 0 0 0 1 11  0 222
L3Tau0DY0MET120to130MTW50to100 3 0 0 0 1 12  0 223
L3Tau0DY0MET130to140MTW50to100 3 0 0 0 1 13  0 224
L3Tau0DY0MET140to150MTW50to100 3 0 0 0 1 14  0 225
L3Tau0DY0MET150to160MTW50to100 3 0 0 0 1 15  0 226
L3Tau0DY0MET160to170MTW50to100 3 0 0 0 1 16  0 227
L3Tau0DY0MET170to180MTW50to100 3 0 0 0 1 17  0 228
L3Tau0DY0MET180to190MTW50to100 3 0 0 0 1 18  0 229
L3Tau0DY0MET190to200MTW50to100 3 0 0 0 1 19  0 230
L3Tau0DY0MET200to210MTW50to100 3 0 0 0 1 20  0 231
L3Tau0DY0MET210to220MTW50to100 3 0 0 0 1 21  0 232
L3Tau0DY0MET220to230MTW50to100 3 0 0 0 1 22  0 233
L3Tau0DY0MET230to240MTW50to100 3 0 0 0 1 23  0 234
L3Tau0DY0MET240to250MTW50to100 3 0 0 0 1 24  0 235
L3Tau0DY0MET250to260MTW50to100 3 0 0 0 1 25  0 236
L3Tau0DY0MET260to270MTW50to100 3 0 0 0 1 26  0 237
L3Tau0DY0MET270to280MTW50to100 3 0 0 0 1 27  0 238
L3Tau0DY0MET280to290MTW50to100 3 0 0 0 1 28  0 239
L3Tau0DY0MET290to300MTW50to100 3 0 0 0 1 29  0 240
L3Tau1DY1Jgt1bZVZHMET0to10MTW50to100 3 1 1 12 1 0  0 241
L3Tau1DY1Jgt1bZVZHMET10to20MTW50to100 3 1 1 12 1 1  0 242
L3Tau1DY1Jgt1bZVZHMET20to30MTW50to100 3 1 1 12 1 2  0 243
L3Tau1DY1Jgt1bZVZHMET30to40MTW50to100 3 1 1 12 1 3  0 244
L3Tau1DY1Jgt1bZVZHMET40to50MTW50to100 3 1 1 12 1 4  0 245
L3Tau1DY1Jgt1bZVZHMET50to60MTW50to100 3 1 1 12 1 5  0 246
L3Tau1DY1Jgt1bZVZHMET60to70MTW50to100 3 1 1 12 1 6  0 247
L3Tau1DY1Jgt1bZVZHMET70to80MTW50to100 3 1 1 12 1 7  0 248
L3Tau1DY1Jgt1bZVZHMET80to90MTW50to100 3 1 1 12 1 8  0 249
L3Tau1DY1Jgt1bZVZHMET90to100MTW50to100 3 1 1 12 1 9  0 250
L3Tau1DY1Jgt1bZVZHMET100to110MTW50to100 3 1 1 12 1 10  0 251
L3Tau1DY1Jgt1bZVZHMET110to120MTW50to100 3 1 1 12 1 11  0 252
L3Tau1DY1Jgt1bZVZHMET120to130MTW50to100 3 1 1 12 1 12  0 253
L3Tau1DY1Jgt1bZVZHMET130to140MTW50to100 3 1 1 12 1 13  0 254
L3Tau1DY1Jgt1bZVZHMET140to150MTW50to100 3 1 1 12 1 14  0 255
L3Tau1DY1Jgt1bZVZHMET150to160MTW50to100 3 1 1 12 1 15  0 256
L3Tau1DY1Jgt1bZVZHMET160to170MTW50to100 3 1 1 12 1 16  0 257
L3Tau1DY1Jgt1bZVZHMET170to180MTW50to100 3 1 1 12 1 17  0 258
L3Tau1DY1Jgt1bZVZHMET180to190MTW50to100 3 1 1 12 1 18  0 259
L3Tau1DY1Jgt1bZVZHMET190to200MTW50to100 3 1 1 12 1 19  0 260
L3Tau1DY1Jgt1bZVZHMET200to210MTW50to100 3 1 1 12 1 20  0 261
L3Tau1DY1Jgt1bZVZHMET210to220MTW50to100 3 1 1 12 1 21  0 262
L3Tau1DY1Jgt1bZVZHMET220to230MTW50to100 3 1 1 12 1 22  0 263
L3Tau1DY1Jgt1bZVZHMET230to240MTW50to100 3 1 1 12 1 23  0 264
L3Tau1DY1Jgt1bZVZHMET240to250MTW50to100 3 1 1 12 1 24  0 265
L3Tau1DY1Jgt1bZVZHMET250to260MTW50to100 3 1 1 12 1 25  0 266
L3Tau1DY1Jgt1bZVZHMET260to270MTW50to100 3 1 1 12 1 26  0 267
L3Tau1DY1Jgt1bZVZHMET270to280MTW50to100 3 1 1 12 1 27  0 268
L3Tau1DY1Jgt1bZVZHMET280to290MTW50to100 3 1 1 12 1 28  0 269
L3Tau1DY1Jgt1bZVZHMET290to300MTW50to100 3 1 1 12 1 29  0 270
L3Tau1DY1Jgt1bZVZLMET0to10MTW50to100 3 1 1 11 1 0  0 271
L3Tau1DY1Jgt1bZVZLMET10to20MTW50to100 3 1 1 11 1 1  0 272
L3Tau1DY1Jgt1bZVZLMET20to30MTW50to100 3 1 1 11 1 2  0 273
L3Tau1DY1Jgt1bZVZLMET30to40MTW50to100 3 1 1 11 1 3  0 274
L3Tau1DY1Jgt1bZVZLMET40to50MTW50to100 3 1 1 11 1 4  0 275
L3Tau1DY1Jgt1bZVZLMET50to60MTW50to100 3 1 1 11 1 5  0 276
L3Tau1DY1Jgt1bZVZLMET60to70MTW50to100 3 1 1 11 1 6  0 277
L3Tau1DY1Jgt1bZVZLMET70to80MTW50to100 3 1 1 11 1 7  0 278
L3Tau1DY1Jgt1bZVZLMET80to90MTW50to100 3 1 1 11 1 8  0 279
L3Tau1DY1Jgt1bZVZLMET90to100MTW50to100 3 1 1 11 1 9  0 280
L3Tau1DY1Jgt1bZVZLMET100to110MTW50to100 3 1 1 11 1 10  0 281
L3Tau1DY1Jgt1bZVZLMET110to120MTW50to100 3 1 1 11 1 11  0 282
L3Tau1DY1Jgt1bZVZLMET120to130MTW50to100 3 1 1 11 1 12  0 283
L3Tau1DY1Jgt1bZVZLMET130to140MTW50to100 3 1 1 11 1 13  0 284
L3Tau1DY1Jgt1bZVZLMET140to150MTW50to100 3 1 1 11 1 14  0 285
L3Tau1DY1Jgt1bZVZLMET150to160MTW50to100 3 1 1 11 1 15  0 286
L3Tau1DY1Jgt1bZVZLMET160to170MTW50to100 3 1 1 11 1 16  0 287
L3Tau1DY1Jgt1bZVZLMET170to180MTW50to100 3 1 1 11 1 17  0 288
L3Tau1DY1Jgt1bZVZLMET180to190MTW50to100 3 1 1 11 1 18  0 289
L3Tau1DY1Jgt1bZVZLMET190to200MTW50to100 3 1 1 11 1 19  0 290
L3Tau1DY1Jgt1bZVZLMET200to210MTW50to100 3 1 1 11 1 20  0 291
L3Tau1DY1Jgt1bZVZLMET210to220MTW50to100 3 1 1 11 1 21  0 292
L3Tau1DY1Jgt1bZVZLMET220to230MTW50to100 3 1 1 11 1 22  0 293
L3Tau1DY1Jgt1bZVZLMET230to240MTW50to100 3 1 1 11 1 23  0 294
L3Tau1DY1Jgt1bZVZLMET240to250MTW50to100 3 1 1 11 1 24  0 295
L3Tau1DY1Jgt1bZVZLMET250to260MTW50to100 3 1 1 11 1 25  0 296
L3Tau1DY1Jgt1bZVZLMET260to270MTW50to100 3 1 1 11 1 26  0 297
L3Tau1DY1Jgt1bZVZLMET270to280MTW50to100 3 1 1 11 1 27  0 298
L3Tau1DY1Jgt1bZVZLMET280to290MTW50to100 3 1 1 11 1 28  0 299
L3Tau1DY1Jgt1bZVZLMET290to300MTW50to100 3 1 1 11 1 29  0 300
L3Tau1DY1Jgt1bMET0to10MTW50to100 3 1 1 10 1 0  0 301
L3Tau1DY1Jgt1bMET10to20MTW50to100 3 1 1 10 1 1  0 302
L3Tau1DY1Jgt1bMET20to30MTW50to100 3 1 1 10 1 2  0 303
L3Tau1DY1Jgt1bMET30to40MTW50to100 3 1 1 10 1 3  0 304
L3Tau1DY1Jgt1bMET40to50MTW50to100 3 1 1 10 1 4  0 305
L3Tau1DY1Jgt1bMET50to60MTW50to100 3 1 1 10 1 5  0 306
L3Tau1DY1Jgt1bMET60to70MTW50to100 3 1 1 10 1 6  0 307
L3Tau1DY1Jgt1bMET70to80MTW50to100 3 1 1 10 1 7  0 308
L3Tau1DY1Jgt1bMET80to90MTW50to100 3 1 1 10 1 8  0 309
L3Tau1DY1Jgt1bMET90to100MTW50to100 3 1 1 10 1 9  0 310
L3Tau1DY1Jgt1bMET100to110MTW50to100 3 1 1 10 1 10  0 311
L3Tau1DY1Jgt1bMET110to120MTW50to100 3 1 1 10 1 11  0 312
L3Tau1DY1Jgt1bMET120to130MTW50to100 3 1 1 10 1 12  0 313
L3Tau1DY1Jgt1bMET130to140MTW50to100 3 1 1 10 1 13  0 314
L3Tau1DY1Jgt1bMET140to150MTW50to100 3 1 1 10 1 14  0 315
L3Tau1DY1Jgt1bMET150to160MTW50to100 3 1 1 10 1 15  0 316
L3Tau1DY1Jgt1bMET160to170MTW50to100 3 1 1 10 1 16  0 317
L3Tau1DY1Jgt1bMET170to180MTW50to100 3 1 1 10 1 17  0 318
L3Tau1DY1Jgt1bMET180to190MTW50to100 3 1 1 10 1 18  0 319
L3Tau1DY1Jgt1bMET190to200MTW50to100 3 1 1 10 1 19  0 320
L3Tau1DY1Jgt1bMET200to210MTW50to100 3 1 1 10 1 20  0 321
L3Tau1DY1Jgt1bMET210to220MTW50to100 3 1 1 10 1 21  0 322
L3Tau1DY1Jgt1bMET220to230MTW50to100 3 1 1 10 1 22  0 323
L3Tau1DY1Jgt1bMET230to240MTW50to100 3 1 1 10 1 23  0 324
L3Tau1DY1Jgt1bMET240to250MTW50to100 3 1 1 10 1 24  0 325
L3Tau1DY1Jgt1bMET250to260MTW50to100 3 1 1 10 1 25  0 326
L3Tau1DY1Jgt1bMET260to270MTW50to100 3 1 1 10 1 26  0 327
L3Tau1DY1Jgt1bMET270to280MTW50to100 3 1 1 10 1 27  0 328
L3Tau1DY1Jgt1bMET280to290MTW50to100 3 1 1 10 1 28  0 329
L3Tau1DY1Jgt1bMET290to300MTW50to100 3 1 1 10 1 29  0 330
L3Tau1DY1ZVZHMET0to10MTW50to100 3 1 0 12 1 0  0 331
L3Tau1DY1ZVZHMET10to20MTW50to100 3 1 0 12 1 1  0 332
L3Tau1DY1ZVZHMET20to30MTW50to100 3 1 0 12 1 2  0 333
L3Tau1DY1ZVZHMET30to40MTW50to100 3 1 0 12 1 3  0 334
L3Tau1DY1ZVZHMET40to50MTW50to100 3 1 0 12 1 4  0 335
L3Tau1DY1ZVZHMET50to60MTW50to100 3 1 0 12 1 5  0 336
L3Tau1DY1ZVZHMET60to70MTW50to100 3 1 0 12 1 6  0 337
L3Tau1DY1ZVZHMET70to80MTW50to100 3 1 0 12 1 7  0 338
L3Tau1DY1ZVZHMET80to90MTW50to100 3 1 0 12 1 8  0 339
L3Tau1DY1ZVZHMET90to100MTW50to100 3 1 0 12 1 9  0 340
L3Tau1DY1ZVZHMET100to110MTW50to100 3 1 0 12 1 10  0 341
L3Tau1DY1ZVZHMET110to120MTW50to100 3 1 0 12 1 11  0 342
L3Tau1DY1ZVZHMET120to130MTW50to100 3 1 0 12 1 12  0 343
L3Tau1DY1ZVZHMET130to140MTW50to100 3 1 0 12 1 13  0 344
L3Tau1DY1ZVZHMET140to150MTW50to100 3 1 0 12 1 14  0 345
L3Tau1DY1ZVZHMET150to160MTW50to100 3 1 0 12 1 15  0 346
L3Tau1DY1ZVZHMET160to170MTW50to100 3 1 0 12 1 16  0 347
L3Tau1DY1ZVZHMET170to180MTW50to100 3 1 0 12 1 17  0 348
L3Tau1DY1ZVZHMET180to190MTW50to100 3 1 0 12 1 18  0 349
L3Tau1DY1ZVZHMET190to200MTW50to100 3 1 0 12 1 19  0 350
L3Tau1DY1ZVZHMET200to210MTW50to100 3 1 0 12 1 20  0 351
L3Tau1DY1ZVZHMET210to220MTW50to100 3 1 0 12 1 21  0 352
L3Tau1DY1ZVZHMET220to230MTW50to100 3 1 0 12 1 22  0 353
L3Tau1DY1ZVZHMET230to240MTW50to100 3 1 0 12 1 23  0 354
L3Tau1DY1ZVZHMET240to250MTW50to100 3 1 0 12 1 24  0 355
L3Tau1DY1ZVZHMET250to260MTW50to100 3 1 0 12 1 25  0 356
L3Tau1DY1ZVZHMET260to270MTW50to100 3 1 0 12 1 26  0 357
L3Tau1DY1ZVZHMET270to280MTW50to100 3 1 0 12 1 27  0 358
L3Tau1DY1ZVZHMET280to290MTW50to100 3 1 0 12 1 28  0 359
L3Tau1DY1ZVZHMET290to300MTW50to100 3 1 0 12 1 29  0 360
L3Tau1DY1ZVZLMET0to10MTW50to100 3 1 0 11 1 0  0 361
L3Tau1DY1ZVZLMET10to20MTW50to100 3 1 0 11 1 1  0 362
L3Tau1DY1ZVZLMET20to30MTW50to100 3 1 0 11 1 2  0 363
L3Tau1DY1ZVZLMET30to40MTW50to100 3 1 0 11 1 3  0 364
L3Tau1DY1ZVZLMET40to50MTW50to100 3 1 0 11 1 4  0 365
L3Tau1DY1ZVZLMET50to60MTW50to100 3 1 0 11 1 5  0 366
L3Tau1DY1ZVZLMET60to70MTW50to100 3 1 0 11 1 6  0 367
L3Tau1DY1ZVZLMET70to80MTW50to100 3 1 0 11 1 7  0 368
L3Tau1DY1ZVZLMET80to90MTW50to100 3 1 0 11 1 8  0 369
L3Tau1DY1ZVZLMET90to100MTW50to100 3 1 0 11 1 9  0 370
L3Tau1DY1ZVZLMET100to110MTW50to100 3 1 0 11 1 10  0 371
L3Tau1DY1ZVZLMET110to120MTW50to100 3 1 0 11 1 11  0 372
L3Tau1DY1ZVZLMET120to130MTW50to100 3 1 0 11 1 12  0 373
L3Tau1DY1ZVZLMET130to140MTW50to100 3 1 0 11 1 13  0 374
L3Tau1DY1ZVZLMET140to150MTW50to100 3 1 0 11 1 14  0 375
L3Tau1DY1ZVZLMET150to160MTW50to100 3 1 0 11 1 15  0 376
L3Tau1DY1ZVZLMET160to170MTW50to100 3 1 0 11 1 16  0 377
L3Tau1DY1ZVZLMET170to180MTW50to100 3 1 0 11 1 17  0 378
L3Tau1DY1ZVZLMET180to190MTW50to100 3 1 0 11 1 18  0 379
L3Tau1DY1ZVZLMET190to200MTW50to100 3 1 0 11 1 19  0 380
L3Tau1DY1ZVZLMET200to210MTW50to100 3 1 0 11 1 20  0 381
L3Tau1DY1ZVZLMET210to220MTW50to100 3 1 0 11 1 21  0 382
L3Tau1DY1ZVZLMET220to230MTW50to100 3 1 0 11 1 22  0 383
L3Tau1DY1ZVZLMET230to240MTW50to100 3 1 0 11 1 23  0 384
L3Tau1DY1ZVZLMET240to250MTW50to100 3 1 0 11 1 24  0 385
L3Tau1DY1ZVZLMET250to260MTW50to100 3 1 0 11 1 25  0 386
L3Tau1DY1ZVZLMET260to270MTW50to100 3 1 0 11 1 26  0 387
L3Tau1DY1ZVZLMET270to280MTW50to100 3 1 0 11 1 27  0 388
L3Tau1DY1ZVZLMET280to290MTW50to100 3 1 0 11 1 28  0 389
L3Tau1DY1ZVZLMET290to300MTW50to100 3 1 0 11 1 29  0 390
L3Tau1DY1MET0to10MTW50to100 3 1 0 10 1 0  0 391
L3Tau1DY1MET10to20MTW50to100 3 1 0 10 1 1  0 392
L3Tau1DY1MET20to30MTW50to100 3 1 0 10 1 2  0 393
L3Tau1DY1MET30to40MTW50to100 3 1 0 10 1 3  0 394
L3Tau1DY1MET40to50MTW50to100 3 1 0 10 1 4  0 395
L3Tau1DY1MET50to60MTW50to100 3 1 0 10 1 5  0 396
L3Tau1DY1MET60to70MTW50to100 3 1 0 10 1 6  0 397
L3Tau1DY1MET70to80MTW50to100 3 1 0 10 1 7  0 398
L3Tau1DY1MET80to90MTW50to100 3 1 0 10 1 8  0 399
L3Tau1DY1MET90to100MTW50to100 3 1 0 10 1 9  0 400
L3Tau1DY1MET100to110MTW50to100 3 1 0 10 1 10  0 401
L3Tau1DY1MET110to120MTW50to100 3 1 0 10 1 11  0 402
L3Tau1DY1MET120to130MTW50to100 3 1 0 10 1 12  0 403
L3Tau1DY1MET130to140MTW50to100 3 1 0 10 1 13  0 404
L3Tau1DY1MET140to150MTW50to100 3 1 0 10 1 14  0 405
L3Tau1DY1MET150to160MTW50to100 3 1 0 10 1 15  0 406
L3Tau1DY1MET160to170MTW50to100 3 1 0 10 1 16  0 407
L3Tau1DY1MET170to180MTW50to100 3 1 0 10 1 17  0 408
L3Tau1DY1MET180to190MTW50to100 3 1 0 10 1 18  0 409
L3Tau1DY1MET190to200MTW50to100 3 1 0 10 1 19  0 410
L3Tau1DY1MET200to210MTW50to100 3 1 0 10 1 20  0 411
L3Tau1DY1MET210to220MTW50to100 3 1 0 10 1 21  0 412
L3Tau1DY1MET220to230MTW50to100 3 1 0 10 1 22  0 413
L3Tau1DY1MET230to240MTW50to100 3 1 0 10 1 23  0 414
L3Tau1DY1MET240to250MTW50to100 3 1 0 10 1 24  0 415
L3Tau1DY1MET250to260MTW50to100 3 1 0 10 1 25  0 416
L3Tau1DY1MET260to270MTW50to100 3 1 0 10 1 26  0 417
L3Tau1DY1MET270to280MTW50to100 3 1 0 10 1 27  0 418
L3Tau1DY1MET280to290MTW50to100 3 1 0 10 1 28  0 419
L3Tau1DY1MET290to300MTW50to100 3 1 0 10 1 29  0 420
L3Tau1DY0Jgt1bMET0to10MTW50to100 3 1 1 0 1 0  0 421
L3Tau1DY0Jgt1bMET10to20MTW50to100 3 1 1 0 1 1  0 422
L3Tau1DY0Jgt1bMET20to30MTW50to100 3 1 1 0 1 2  0 423
L3Tau1DY0Jgt1bMET30to40MTW50to100 3 1 1 0 1 3  0 424
L3Tau1DY0Jgt1bMET40to50MTW50to100 3 1 1 0 1 4  0 425
L3Tau1DY0Jgt1bMET50to60MTW50to100 3 1 1 0 1 5  0 426
L3Tau1DY0Jgt1bMET60to70MTW50to100 3 1 1 0 1 6  0 427
L3Tau1DY0Jgt1bMET70to80MTW50to100 3 1 1 0 1 7  0 428
L3Tau1DY0Jgt1bMET80to90MTW50to100 3 1 1 0 1 8  0 429
L3Tau1DY0Jgt1bMET90to100MTW50to100 3 1 1 0 1 9  0 430
L3Tau1DY0Jgt1bMET100to110MTW50to100 3 1 1 0 1 10  0 431
L3Tau1DY0Jgt1bMET110to120MTW50to100 3 1 1 0 1 11  0 432
L3Tau1DY0Jgt1bMET120to130MTW50to100 3 1 1 0 1 12  0 433
L3Tau1DY0Jgt1bMET130to140MTW50to100 3 1 1 0 1 13  0 434
L3Tau1DY0Jgt1bMET140to150MTW50to100 3 1 1 0 1 14  0 435
L3Tau1DY0Jgt1bMET150to160MTW50to100 3 1 1 0 1 15  0 436
L3Tau1DY0Jgt1bMET160to170MTW50to100 3 1 1 0 1 16  0 437
L3Tau1DY0Jgt1bMET170to180MTW50to100 3 1 1 0 1 17  0 438
L3Tau1DY0Jgt1bMET180to190MTW50to100 3 1 1 0 1 18  0 439
L3Tau1DY0Jgt1bMET190to200MTW50to100 3 1 1 0 1 19  0 440
L3Tau1DY0Jgt1bMET200to210MTW50to100 3 1 1 0 1 20  0 441
L3Tau1DY0Jgt1bMET210to220MTW50to100 3 1 1 0 1 21  0 442
L3Tau1DY0Jgt1bMET220to230MTW50to100 3 1 1 0 1 22  0 443
L3Tau1DY0Jgt1bMET230to240MTW50to100 3 1 1 0 1 23  0 444
L3Tau1DY0Jgt1bMET240to250MTW50to100 3 1 1 0 1 24  0 445
L3Tau1DY0Jgt1bMET250to260MTW50to100 3 1 1 0 1 25  0 446
L3Tau1DY0Jgt1bMET260to270MTW50to100 3 1 1 0 1 26  0 447
L3Tau1DY0Jgt1bMET270to280MTW50to100 3 1 1 0 1 27  0 448
L3Tau1DY0Jgt1bMET280to290MTW50to100 3 1 1 0 1 28  0 449
L3Tau1DY0Jgt1bMET290to300MTW50to100 3 1 1 0 1 29  0 450
L3Tau1DY0MET0to10MTW50to100 3 1 0 0 1 0  0 451
L3Tau1DY0MET10to20MTW50to100 3 1 0 0 1 1  0 452
L3Tau1DY0MET20to30MTW50to100 3 1 0 0 1 2  0 453
L3Tau1DY0MET30to40MTW50to100 3 1 0 0 1 3  0 454
L3Tau1DY0MET40to50MTW50to100 3 1 0 0 1 4  0 455
L3Tau1DY0MET50to60MTW50to100 3 1 0 0 1 5  0 456
L3Tau1DY0MET60to70MTW50to100 3 1 0 0 1 6  0 457
L3Tau1DY0MET70to80MTW50to100 3 1 0 0 1 7  0 458
L3Tau1DY0MET80to90MTW50to100 3 1 0 0 1 8  0 459
L3Tau1DY0MET90to100MTW50to100 3 1 0 0 1 9  0 460
L3Tau1DY0MET100to110MTW50to100 3 1 0 0 1 10  0 461
L3Tau1DY0MET110to120MTW50to100 3 1 0 0 1 11  0 462
L3Tau1DY0MET120to130MTW50to100 3 1 0 0 1 12  0 463
L3Tau1DY0MET130to140MTW50to100 3 1 0 0 1 13  0 464
L3Tau1DY0MET140to150MTW50to100 3 1 0 0 1 14  0 465
L3Tau1DY0MET150to160MTW50to100 3 1 0 0 1 15  0 466
L3Tau1DY0MET160to170MTW50to100 3 1 0 0 1 16  0 467
L3Tau1DY0MET170to180MTW50to100 3 1 0 0 1 17  0 468
L3Tau1DY0MET180to190MTW50to100 3 1 0 0 1 18  0 469
L3Tau1DY0MET190to200MTW50to100 3 1 0 0 1 19  0 470
L3Tau1DY0MET200to210MTW50to100 3 1 0 0 1 20  0 471
L3Tau1DY0MET210to220MTW50to100 3 1 0 0 1 21  0 472
L3Tau1DY0MET220to230MTW50to100 3 1 0 0 1 22  0 473
L3Tau1DY0MET230to240MTW50to100 3 1 0 0 1 23  0 474
L3Tau1DY0MET240to250MTW50to100 3 1 0 0 1 24  0 475
L3Tau1DY0MET250to260MTW50to100 3 1 0 0 1 25  0 476
L3Tau1DY0MET260to270MTW50to100 3 1 0 0 1 26  0 477
L3Tau1DY0MET270to280MTW50to100 3 1 0 0 1 27  0 478
L3Tau1DY0MET280to290MTW50to100 3 1 0 0 1 28  0 479
L3Tau1DY0MET290to300MTW50to100 3 1 0 0 1 29  0 480
